module github.com/JetBrains/qodana-cli/v2024/platform

go 1.21

require (
	github.com/cucumber/ci-environment/go v0.0.0-20230911180507-bd001ebc644c
	github.com/go-enry/go-enry/v2 v2.8.7
	github.com/google/uuid v1.6.0
	github.com/liamg/clinch v1.6.6
	github.com/mattn/go-isatty v0.0.20
	github.com/otiai10/copy v1.14.0
	github.com/pterm/pterm v0.12.79
	github.com/sirupsen/logrus v1.9.3
	github.com/spf13/cobra v1.8.0
	github.com/stretchr/testify v1.9.0
	github.com/zalando/go-keyring v0.2.3
	gopkg.in/yaml.v3 v3.0.1
)

replace (
	github.com/JetBrains/qodana-cli/v2024/cloud => ../cloud
	github.com/JetBrains/qodana-cli/v2024/cmd => ../cmd
	github.com/JetBrains/qodana-cli/v2024/core => ../core
	github.com/JetBrains/qodana-cli/v2024/platform => ../platform
	github.com/JetBrains/qodana-cli/v2024/sarif => ../sarif
	github.com/JetBrains/qodana-cli/v2024/tooling => ../tooling
)

require (
	github.com/JetBrains/qodana-cli/v2024/cloud v0.0.0-00010101000000-000000000000
	github.com/JetBrains/qodana-cli/v2024/sarif v0.0.0-00010101000000-000000000000
	github.com/JetBrains/qodana-cli/v2024/tooling v0.0.0-00010101000000-000000000000
	github.com/spf13/pflag v1.0.5
	golang.org/x/exp v0.0.0-20230905200255-921286631fa9
)

require (
	atomicgo.dev/cursor v0.2.0 // indirect
	atomicgo.dev/keyboard v0.2.9 // indirect
	atomicgo.dev/schedule v0.1.0 // indirect
	github.com/alessio/shellescape v1.4.1 // indirect
	github.com/containerd/console v1.0.3 // indirect
	github.com/danieljoos/wincred v1.2.0 // indirect
	github.com/davecgh/go-spew v1.1.2-0.20180830191138-d8f796af33cc // indirect
	github.com/go-enry/go-oniguruma v1.2.1 // indirect
	github.com/godbus/dbus/v5 v5.1.0 // indirect
	github.com/gookit/color v1.5.4 // indirect
	github.com/inconshreveable/mousetrap v1.1.0 // indirect
	github.com/kr/pretty v0.3.1 // indirect
	github.com/liamg/tml v0.3.0 // indirect
	github.com/lithammer/fuzzysearch v1.1.8 // indirect
	github.com/mattn/go-runewidth v0.0.15 // indirect
	github.com/pmezard/go-difflib v1.0.1-0.20181226105442-5d4384ee4fb2 // indirect
	github.com/rivo/uniseg v0.4.4 // indirect
	github.com/xo/terminfo v0.0.0-20220910002029-abceb7e1c41e // indirect
	golang.org/x/crypto v0.20.0 // indirect
	golang.org/x/sync v0.5.0 // indirect
	golang.org/x/sys v0.17.0 // indirect
	golang.org/x/term v0.17.0 // indirect
	golang.org/x/text v0.14.0 // indirect
)
